{
  "IsEncrypted": false,
  "Values": {
    "FUNCTIONS_WORKER_RUNTIME": "python",
    "AzureWebJobsStorage": "{AzureWebJobsStorage}",
    "KIM_CRAWLER_DB_ENDPOINT": "https://kim-crawler-db-local.documents.azure.com:443/",
    "KIM_CRAWLER_DB_KEY": "iQhhcrkvSsZqYSGIgaIufJ9IFYww9rbOATQ9PiIupup3AeH79AD4wWR4oWbE6q03Q3dLSMwao5YhBwBUyF6eLw==",
    "KIM_CRAWLER_MAX_LEVEL": 3,
    "KimCrawlerDbConnectionString": "AccountEndpoint=https://kim-crawler-db-local.documents.azure.com:443/;AccountKey=iQhhcrkvSsZqYSGIgaIufJ9IFYww9rbOATQ9PiIupup3AeH79AD4wWR4oWbE6q03Q3dLSMwao5YhBwBUyF6eLw==;"
  }
}